title,langcode,body,comment,field_article_type,field_image,field_tags
My First Press Release,en,"Lorem ipsum dolor sit amet, consectetur adipiscing elit. Aenean blandit id nunc ac imperdiet. Suspendisse imperdiet egestas libero, in elementum leo aliquet ut. Aenean iaculis ut est et ultricies. Etiam id nibh justo. Curabitur vitae faucibus neque. Pellentesque rhoncus velit ac velit vulputate scelerisque. Class aptent taciti sociosqu ad litora torquent per conubia nostra, per inceptos himenaeos. Curabitur dignissim mauris at metus euismod, sit amet sagittis nisi finibus. Aenean aliquam ornare risus nec fringilla. Phasellus placerat nulla arcu, vitae vulputate ex imperdiet quis. Praesent viverra orci efficitur nisl fringilla, eu iaculis quam ornare.

Vestibulum pulvinar nec felis eget dignissim. Suspendisse rhoncus fringilla justo, sit amet fringilla nisl placerat eget. Pellentesque habitant morbi tristique senectus et netus et malesuada fames ac turpis egestas. Fusce leo ante, rhoncus in tempus a, interdum vitae felis. Pellentesque ornare arcu ligula, sed tristique eros euismod in. Duis sodales eros eget efficitur convallis. Vestibulum ante ipsum primis in faucibus orci luctus et ultrices posuere cubilia curae; Ut blandit et enim quis molestie. Vestibulum tristique libero ex, vitae finibus arcu placerat vel. Phasellus a luctus nisl, vulputate pharetra justo. Pellentesque mollis, justo iaculis mollis laoreet, metus orci accumsan diam, venenatis dictum justo nisi vitae dolor. Suspendisse sem dolor, rhoncus eget ullamcorper sed, hendrerit eu ipsum.

Suspendisse mattis sed lectus sed semper. In venenatis sagittis dui, vitae molestie nulla. Sed molestie risus libero, a sodales turpis viverra nec. Phasellus varius gravida est et scelerisque. Nunc convallis arcu diam, sed tempor tortor sollicitudin id. Sed nulla sapien, dictum eget lacus a, interdum semper risus. Nulla luctus justo eget nisl fringilla venenatis. Proin mollis turpis libero, vitae dignissim dolor lacinia sit amet. Interdum et malesuada fames ac ante ipsum primis in faucibus. Mauris dolor elit, fringilla in hendrerit non, hendrerit vel nulla. Integer aliquam nec purus ac sollicitudin. Phasellus placerat nisi turpis. Vivamus iaculis, nibh in imperdiet dictum, purus diam molestie mauris, at porta massa arcu non ipsum. Proin eget ipsum vel odio lacinia placerat finibus sed dui. Mauris tellus ante, lacinia eu tincidunt sed, accumsan sit amet neque.

Nunc magna sapien, lobortis ac lorem nec, aliquet facilisis ligula. Donec condimentum odio lorem, eu dictum diam euismod sed. Vestibulum commodo dignissim purus varius gravida. Quisque egestas luctus lectus. Fusce sagittis eu sem nec vehicula. Nullam neque elit, interdum a arcu nec, venenatis semper leo. Nam vel nisi auctor, tristique dolor id, pellentesque odio. Donec nec erat quam. Cras et dui in velit egestas malesuada sed in eros.

In hac habitasse platea dictumst. In placerat ultricies ex at finibus. Proin elementum, ligula at elementum eleifend, lectus risus porttitor nunc, nec congue est ex eu lacus. Quisque a pulvinar sem, a feugiat est. Aliquam erat volutpat. Curabitur mattis consectetur nisl eget mattis. Phasellus cursus iaculis justo, sit amet sollicitudin nibh consequat vitae. ",,Press Releases,,"venenatis, Phasellus, elementum"
My Second Press Release,en,"Lorem ipsum dolor sit amet, consectetur adipiscing elit. Aenean blandit id nunc ac imperdiet. Suspendisse imperdiet egestas libero, in elementum leo aliquet ut. Aenean iaculis ut est et ultricies. Etiam id nibh justo. Curabitur vitae faucibus neque. Pellentesque rhoncus velit ac velit vulputate scelerisque. Class aptent taciti sociosqu ad litora torquent per conubia nostra, per inceptos himenaeos. Curabitur dignissim mauris at metus euismod, sit amet sagittis nisi finibus. Aenean aliquam ornare risus nec fringilla. Phasellus placerat nulla arcu, vitae vulputate ex imperdiet quis. Praesent viverra orci efficitur nisl fringilla, eu iaculis quam ornare.

Vestibulum pulvinar nec felis eget dignissim. Suspendisse rhoncus fringilla justo, sit amet fringilla nisl placerat eget. Pellentesque habitant morbi tristique senectus et netus et malesuada fames ac turpis egestas. Fusce leo ante, rhoncus in tempus a, interdum vitae felis. Pellentesque ornare arcu ligula, sed tristique eros euismod in. Duis sodales eros eget efficitur convallis. Vestibulum ante ipsum primis in faucibus orci luctus et ultrices posuere cubilia curae; Ut blandit et enim quis molestie. Vestibulum tristique libero ex, vitae finibus arcu placerat vel. Phasellus a luctus nisl, vulputate pharetra justo. Pellentesque mollis, justo iaculis mollis laoreet, metus orci accumsan diam, venenatis dictum justo nisi vitae dolor. Suspendisse sem dolor, rhoncus eget ullamcorper sed, hendrerit eu ipsum.

Suspendisse mattis sed lectus sed semper. In venenatis sagittis dui, vitae molestie nulla. Sed molestie risus libero, a sodales turpis viverra nec. Phasellus varius gravida est et scelerisque. Nunc convallis arcu diam, sed tempor tortor sollicitudin id. Sed nulla sapien, dictum eget lacus a, interdum semper risus. Nulla luctus justo eget nisl fringilla venenatis. Proin mollis turpis libero, vitae dignissim dolor lacinia sit amet. Interdum et malesuada fames ac ante ipsum primis in faucibus. Mauris dolor elit, fringilla in hendrerit non, hendrerit vel nulla. Integer aliquam nec purus ac sollicitudin. Phasellus placerat nisi turpis. Vivamus iaculis, nibh in imperdiet dictum, purus diam molestie mauris, at porta massa arcu non ipsum. Proin eget ipsum vel odio lacinia placerat finibus sed dui. Mauris tellus ante, lacinia eu tincidunt sed, accumsan sit amet neque.

Nunc magna sapien, lobortis ac lorem nec, aliquet facilisis ligula. Donec condimentum odio lorem, eu dictum diam euismod sed. Vestibulum commodo dignissim purus varius gravida. Quisque egestas luctus lectus. Fusce sagittis eu sem nec vehicula. Nullam neque elit, interdum a arcu nec, venenatis semper leo. Nam vel nisi auctor, tristique dolor id, pellentesque odio. Donec nec erat quam. Cras et dui in velit egestas malesuada sed in eros.

In hac habitasse platea dictumst. In placerat ultricies ex at finibus. Proin elementum, ligula at elementum eleifend, lectus risus porttitor nunc, nec congue est ex eu lacus. Quisque a pulvinar sem, a feugiat est. Aliquam erat volutpat. Curabitur mattis consectetur nisl eget mattis. Phasellus cursus iaculis justo, sit amet sollicitudin nibh consequat vitae. ",,Press Releases,,"lobortis, ultricies, condimentum"
My First Blog Post,en,"Lorem ipsum dolor sit amet, consectetur adipiscing elit. Aenean blandit id nunc ac imperdiet. Suspendisse imperdiet egestas libero, in elementum leo aliquet ut. Aenean iaculis ut est et ultricies. Etiam id nibh justo. Curabitur vitae faucibus neque. Pellentesque rhoncus velit ac velit vulputate scelerisque. Class aptent taciti sociosqu ad litora torquent per conubia nostra, per inceptos himenaeos. Curabitur dignissim mauris at metus euismod, sit amet sagittis nisi finibus. Aenean aliquam ornare risus nec fringilla. Phasellus placerat nulla arcu, vitae vulputate ex imperdiet quis. Praesent viverra orci efficitur nisl fringilla, eu iaculis quam ornare.

Vestibulum pulvinar nec felis eget dignissim. Suspendisse rhoncus fringilla justo, sit amet fringilla nisl placerat eget. Pellentesque habitant morbi tristique senectus et netus et malesuada fames ac turpis egestas. Fusce leo ante, rhoncus in tempus a, interdum vitae felis. Pellentesque ornare arcu ligula, sed tristique eros euismod in. Duis sodales eros eget efficitur convallis. Vestibulum ante ipsum primis in faucibus orci luctus et ultrices posuere cubilia curae; Ut blandit et enim quis molestie. Vestibulum tristique libero ex, vitae finibus arcu placerat vel. Phasellus a luctus nisl, vulputate pharetra justo. Pellentesque mollis, justo iaculis mollis laoreet, metus orci accumsan diam, venenatis dictum justo nisi vitae dolor. Suspendisse sem dolor, rhoncus eget ullamcorper sed, hendrerit eu ipsum.

Suspendisse mattis sed lectus sed semper. In venenatis sagittis dui, vitae molestie nulla. Sed molestie risus libero, a sodales turpis viverra nec. Phasellus varius gravida est et scelerisque. Nunc convallis arcu diam, sed tempor tortor sollicitudin id. Sed nulla sapien, dictum eget lacus a, interdum semper risus. Nulla luctus justo eget nisl fringilla venenatis. Proin mollis turpis libero, vitae dignissim dolor lacinia sit amet. Interdum et malesuada fames ac ante ipsum primis in faucibus. Mauris dolor elit, fringilla in hendrerit non, hendrerit vel nulla. Integer aliquam nec purus ac sollicitudin. Phasellus placerat nisi turpis. Vivamus iaculis, nibh in imperdiet dictum, purus diam molestie mauris, at porta massa arcu non ipsum. Proin eget ipsum vel odio lacinia placerat finibus sed dui. Mauris tellus ante, lacinia eu tincidunt sed, accumsan sit amet neque.

Nunc magna sapien, lobortis ac lorem nec, aliquet facilisis ligula. Donec condimentum odio lorem, eu dictum diam euismod sed. Vestibulum commodo dignissim purus varius gravida. Quisque egestas luctus lectus. Fusce sagittis eu sem nec vehicula. Nullam neque elit, interdum a arcu nec, venenatis semper leo. Nam vel nisi auctor, tristique dolor id, pellentesque odio. Donec nec erat quam. Cras et dui in velit egestas malesuada sed in eros.

In hac habitasse platea dictumst. In placerat ultricies ex at finibus. Proin elementum, ligula at elementum eleifend, lectus risus porttitor nunc, nec congue est ex eu lacus. Quisque a pulvinar sem, a feugiat est. Aliquam erat volutpat. Curabitur mattis consectetur nisl eget mattis. Phasellus cursus iaculis justo, sit amet sollicitudin nibh consequat vitae. ",,Blog,,"lobortis, ultricies, condimentum"
My Second Blog Post,en,"Lorem ipsum dolor sit amet, consectetur adipiscing elit. Aenean blandit id nunc ac imperdiet. Suspendisse imperdiet egestas libero, in elementum leo aliquet ut. Aenean iaculis ut est et ultricies. Etiam id nibh justo. Curabitur vitae faucibus neque. Pellentesque rhoncus velit ac velit vulputate scelerisque. Class aptent taciti sociosqu ad litora torquent per conubia nostra, per inceptos himenaeos. Curabitur dignissim mauris at metus euismod, sit amet sagittis nisi finibus. Aenean aliquam ornare risus nec fringilla. Phasellus placerat nulla arcu, vitae vulputate ex imperdiet quis. Praesent viverra orci efficitur nisl fringilla, eu iaculis quam ornare.

Vestibulum pulvinar nec felis eget dignissim. Suspendisse rhoncus fringilla justo, sit amet fringilla nisl placerat eget. Pellentesque habitant morbi tristique senectus et netus et malesuada fames ac turpis egestas. Fusce leo ante, rhoncus in tempus a, interdum vitae felis. Pellentesque ornare arcu ligula, sed tristique eros euismod in. Duis sodales eros eget efficitur convallis. Vestibulum ante ipsum primis in faucibus orci luctus et ultrices posuere cubilia curae; Ut blandit et enim quis molestie. Vestibulum tristique libero ex, vitae finibus arcu placerat vel. Phasellus a luctus nisl, vulputate pharetra justo. Pellentesque mollis, justo iaculis mollis laoreet, metus orci accumsan diam, venenatis dictum justo nisi vitae dolor. Suspendisse sem dolor, rhoncus eget ullamcorper sed, hendrerit eu ipsum.

Suspendisse mattis sed lectus sed semper. In venenatis sagittis dui, vitae molestie nulla. Sed molestie risus libero, a sodales turpis viverra nec. Phasellus varius gravida est et scelerisque. Nunc convallis arcu diam, sed tempor tortor sollicitudin id. Sed nulla sapien, dictum eget lacus a, interdum semper risus. Nulla luctus justo eget nisl fringilla venenatis. Proin mollis turpis libero, vitae dignissim dolor lacinia sit amet. Interdum et malesuada fames ac ante ipsum primis in faucibus. Mauris dolor elit, fringilla in hendrerit non, hendrerit vel nulla. Integer aliquam nec purus ac sollicitudin. Phasellus placerat nisi turpis. Vivamus iaculis, nibh in imperdiet dictum, purus diam molestie mauris, at porta massa arcu non ipsum. Proin eget ipsum vel odio lacinia placerat finibus sed dui. Mauris tellus ante, lacinia eu tincidunt sed, accumsan sit amet neque.

Nunc magna sapien, lobortis ac lorem nec, aliquet facilisis ligula. Donec condimentum odio lorem, eu dictum diam euismod sed. Vestibulum commodo dignissim purus varius gravida. Quisque egestas luctus lectus. Fusce sagittis eu sem nec vehicula. Nullam neque elit, interdum a arcu nec, venenatis semper leo. Nam vel nisi auctor, tristique dolor id, pellentesque odio. Donec nec erat quam. Cras et dui in velit egestas malesuada sed in eros.

In hac habitasse platea dictumst. In placerat ultricies ex at finibus. Proin elementum, ligula at elementum eleifend, lectus risus porttitor nunc, nec congue est ex eu lacus. Quisque a pulvinar sem, a feugiat est. Aliquam erat volutpat. Curabitur mattis consectetur nisl eget mattis. Phasellus cursus iaculis justo, sit amet sollicitudin nibh consequat vitae. ",,Blog,,"venenatis, Phasellus, elementum"